REMMOA Analysis
…
Detection matrix

A lot of zeros .

N<-as_tibble(N)
N

## # A tibble: 2,165 x 32
##    SMADEL BIGDEL SMAGLO BIGGLO BALSPP PHYMAC KOGIA ZIPHIUS DUGONG CHESPP
##  *  <dbl>  <dbl>  <dbl>  <dbl>  <dbl>  <dbl> <dbl>   <dbl>  <dbl>  <dbl>
##  1      0      0      0      0      0      0     0       0      0      0
##  2      0      0      0      0      0      0     0       0      0      0
##  3      0      0      0      0      0      0     0       0      0      0
##  4      0      0      0      0      0      0     0       0      0      0
##  5      0      0      0      0      0      0     0       0      0      0
##  6      0      0      0      0      0      0     0       1      0      0
##  7      0      0      0      0      0      0     0       0      0      0
##  8      0      0      0      0      0      0     0       0      0      0
##  9      0      0      0      0      0      0     0       0      0      0
## 10      0      0      0      2      0      0     0       0      0      0
## # ... with 2,155 more rows, and 22 more variables: RHITYP <dbl>,
## #   MARTEAU <dbl>, SHARKS <dbl>, DAURADE <dbl>, THON <dbl>,
## #   BILLFISH <dbl>, MANBIR <dbl>, MOBSPP <dbl>, DASSPP <dbl>,
## #   AETNAR <dbl>, RAIESP <dbl>, PHAETON <dbl>, GRETER <dbl>, BROTER <dbl>,
## #   GREPET <dbl>, BROPET <dbl>, LARNOV <dbl>, ANOSPP <dbl>, GYGALB <dbl>,
## #   FREGATE <dbl>, OCEANITE <dbl>, FOUS <dbl>
…
##   SMADEL   BIGDEL   SMAGLO   BIGGLO   BALSPP   PHYMAC    KOGIA  ZIPHIUS 
##       22       39       15       46       10       16       19       41 
##   DUGONG   CHESPP   RHITYP  MARTEAU   SHARKS  DAURADE     THON BILLFISH 
##       21      187       12       32      101      121       17       35 
##   MANBIR   MOBSPP   DASSPP   AETNAR   RAIESP  PHAETON   GRETER   BROTER 
##       29       22       35       81       31      245      318      659 
##   GREPET   BROPET   LARNOV   ANOSPP   GYGALB  FREGATE OCEANITE     FOUS 
##      725     3360        8      372      156       52       14      421

Counts matrix

Y<-as_tibble(Y)
Y

## # A tibble: 2,165 x 32
##    SMADEL BIGDEL SMAGLO BIGGLO BALSPP PHYMAC KOGIA ZIPHIUS DUGONG CHESPP
##  *  <dbl>  <dbl>  <dbl>  <dbl>  <dbl>  <dbl> <dbl>   <dbl>  <dbl>  <dbl>
##  1      0      0      0      0      0      0     0       0      0      0
##  2      0      0      0      0      0      0     0       0      0      0
##  3      0      0      0      0      0      0     0       0      0      0
##  4      0      0      0      0      0      0     0       0      0      0
##  5      0      0      0      0      0      0     0       0      0      0
##  6      0      0      0      0      0      0     0       1      0      0
##  7      0      0      0      0      0      0     0       0      0      0
##  8      0      0      0      0      0      0     0       0      0      0
##  9      0      0      0      0      0      0     0       0      0      0
## 10      0      0      0      3      0      0     0       0      0      0
## # ... with 2,155 more rows, and 22 more variables: RHITYP <dbl>,
## #   MARTEAU <dbl>, SHARKS <dbl>, DAURADE <dbl>, THON <dbl>,
## #   BILLFISH <dbl>, MANBIR <dbl>, MOBSPP <dbl>, DASSPP <dbl>,
## #   AETNAR <dbl>, RAIESP <dbl>, PHAETON <dbl>, GRETER <dbl>, BROTER <dbl>,
## #   GREPET <dbl>, BROPET <dbl>, LARNOV <dbl>, ANOSPP <dbl>, GYGALB <dbl>,
## #   FREGATE <dbl>, OCEANITE <dbl>, FOUS <dbl>
…
